tracedata/example.vcd
$version
    FreeRTOS trace logger
$end
$timeScale 1us $end
$scope module task $end
$var wire 1 ! (0000)tick_event $end
$var wire 1 " (0001)Main $end
$var wire 1 # (0002)IDLE $end
$var wire 1 $ (0003)task $end
$var wire 1 % (0004)task $end
$var wire 1 & (0005)task $end
$var wire 1 ' (0006)task $end
$var wire 1 ( (0007)task $end
$var wire 1 ) (0008)task $end
$var wire 1 * (0009)task $end
$var wire 1 + (0010)task $end
$upscope $end
$enddefinitions $end
$dumpvars
#12656
0"
#12832
0#
#12850
1#
#12881
0#
#12897
1"
#13040
0$
#13185
0%
#13329
0&
#13473
0'
#13618
0(
#13762
0)
#13871
1!
#13872
0!
#13889
#13905
0"
#13921
1#
#13948
0#
#13964
1$
#14424
0$
#14440
1%
#14872
1!
#14873
0!
#14889
#14905
0%
#14921
1&
#15380
0&
#15396
1'
#15855
0'
#15871
1(
#15896
1!
#15897
0!
#15913
#15929
0(
#15945
1)
#16406
0)
#16422
1"
#16481
0*
#16625
0+
#16669
0"
#16685
1#
#16712
0#
#16729
1%
#16764
0%
#16780
1(
#16871
1!
#16872
0!
#16897
#16912
0(
#16928
1*
#17370
0*
#17387
1+
#17848
0+
#17865
1#
#17889
1!
#17890
0!
#17919
#17935
0#
#17951
1%
#18394
0%
#18410
1'
#18870
0'
#18886
1(
#18910
1!
#18911
0!
#18936
#18951
0(
#18967
1*
#19427
0*
#19443
1&
#19871
1!
#19872
0!
#19902
#19917
0&
#19933
1"
#19977
0"
#19993
1#
#20019
0#
#20036
1%
#20498
0%
#20514
1$
#20872
1!
#20873
0!
#20902
#20917
0$
#20933
1(
#21326
0(
#21342
1'
#21803
0'
#21819
1*
#21872
1!
#21873
0!
#21896
#21912
0*
#21928
1&
#21985
0&
#22001
1#
#22028
0#
#22045
1)
#22487
0)
#22503
1+
#22872
1!
#22873
0!
#22896
#22912
0+
#22928
1$
#23056
0$
#23072
1"
#23115
0"
#23131
1*
#23545
0*
#23561
1#
#23588
0#
#23604
1)
#23872
1!
#23873
0!
#23897
#23912
0)
#23928
1%
#24370
0%
#24387
1+
#24504
0+
#24521
1*
#24871
1!
#24872
0!
#24897
#24912
0*
#24928
1#
#24955
0#
#24972
1'
#25432
0'
#25449
1)
#25666
0)
#25682
1%
#25872
1!
#25873
0!
#25902
#25917
0%
#25933
1"
#25977
0"
#25993
1*
#26129
0*
#26145
1#
#26172
0#
#26189
1(
#26650
0(
#26667
1)
#26872
1!
#26873
0!
#26902
#26917
0)
#26933
1%
#27229
0%
#27245
1#
#27272
0#
#27289
1&
#27752
0&
#27768
1'
#27871
1!
#27872
0!
#27907
#27922
0'
#27939
1)
#28219
0)
#28235
1#
#28262
0#
#28278
1$
#28741
0$
#28757
1"
#28801
0"
#28817
1(
#28872
1!
#28873
0!
#28907
#28922
0(
#28938
1'
#29301
0'
#29317
1#
#29344
0#
#29361
1+
#29803
0+
#29819
1%
#29872
1!
#29873
0!
#29896
#29912
0%
#29929
1)
#30390
0)
#30406
1(
#30837
0(
#30854
1'
#30878
1!
#30879
0!
#30919
#30934
0'
#30951
1#
#30977
0#
#30994
1+
#31454
0+
#31471
1"
#31514
0"
#31530
1%
#31871
1!
#31872
0!
#31889
#31905
0%
#31921
1*
#32383
0*
#32399
1&
#32841
0&
#32858
1$
#32882
1!
#32883
0!
#32912
#32928
0$
#32945
1)
#33405
0)
#33421
1'
#33871
1!
#33872
0!
#33886
#33911
1!
#33912
0!
#33935
0'
#33951
1#
#33977
0#
#33994
1%
#34111
0%
#34127
1&
#34589
0&
#34605
1(
#34872
1!
#34873
0!
#34896
#34912
0(
#34929
1"
#34974
0"
#34990
1$
#35453
0$
#35469
1#
#35496
0#
#35512
1'
#35872
1!
#35873
0!
#35917
#35932
0'
#35949
1(
#36167
0(
#36183
1#
#36210
0#
#36226
1+
#36688
0+
#36704
1*
#36871
1!
#36872
0!
#36897
#36912
0*
#36928
1)
#37390
0)
#37406
1%
#37848
0%
#37865
1&
#37889
1!
#37890
0!
#37914
#37930
0&
#37946
1'
#38056
0'
#38073
1#
#38100
0#
#38116
1"
#38161
0"
#38177
1*
#38495
0*
#38511
1%
#38872
1!
#38873
0!
#38902
#38917
0%
#38933
1(
#39394
0(
#39410
1&
#39872
1!
#39873
0!
#39902
#39918
0&
#39935
1'
#40394
0'
#40410
1#
#40437
0#
#40453
1$
#40872
1!
#40873
0!
#40897
#40912
0$
#40928
1+
#41390
0+
#41406
1)
#41867
0)
#41884
1"
#41908
1!
#41909
0!
#41949
#41964
0"
#41981
1%
#42104
0%
#42120
1#
#42148
0#
#42164
1'
#42607
0'
#42623
1$
#42672
0$
#42689
1*
#42872
1!
#42873
0!
#42889
#42905
0*
#42921
1(
#43382
0(
#43398
1&
#43423
0&
#43440
1+
#43871
1!
#43872
0!
#43906
#43922
0+
#43938
1"
#43981
0"
#43997
1#
#44024
0#
#44040
1'
#44500
0'
#44517
1$
#44871
1!
#44872
0!
#44889
#44905
0$
#44921
1*
#45206
0*
#45222
1&
#45682
0&
#45699
1)
#45871
1!
#45872
0!
#45897
#45912
0)
#45928
1%
#46389
0%
#46406
1(
#46867
0(
#46883
1+
#46907
1!
#46908
0!
#46932
#46948
0+
#46965
1#
#46991
0#
#47008
1$
#47139
0$
#47156
1*
#47598
0*
#47614
1"
#47659
0"
#47675
1)
#47872
1!
#47873
0!
#47902
#47917
0)
#47933
1'
#48395
0'
#48411
1+
#48465
0+
#48481
1#
#48508
0#
#48525
1*
#48872
1!
#48873
0!
#48902
#48917
0*
#48933
1&
#49394
0&
#49410
1%
#49871
1!
#49872
0!
#49889
#49905
0%
#49921
1)
#50062
0)
#50078
1#
#50106
0#
#50122
1(
#50585
0(
#50602
1"
#50646
0"
#50663
1*
#50805
0*
#50822
1#
#50872
1!
#50873
0!
#50902
#50917
0#
#50934
1$
#51398
0$
#51414
1&
#51871
1!
#51872
0!
#51886
#51909
1!
#51910
0!
#51950
0&
#51967
1#
#51993
0#
#52009
1'
#52472
0'
#52488
1)
#52871
1!
#52872
0!
#52902
#52917
0)
#52934
1"
#52978
0"
#52994
1#
#53022
0#
#53038
1+
#53500
0+
#53516
1%
#53540
0%
#53557
1)
#53660
0)
#53677
1#
#53704
0#
#53720
1%
#53872
1!
#53873
0!
#53897
#53912
0%
#53929
1#
#53956
0#
#53973
1(
#54436
0(
#54452
1%
#54790
0%
#54806
1#
#54872
1!
#54873
0!
#54907
#54922
0#
#54939
1*
#55401
0*
#55417
1$
#55872
1!
#55873
0!
#55886
#55911
1!
#55912
0!
#55957
0$
#55974
1"
#56017
0"
#56034
1#
#56060
0#
#56076
1&
#56540
0&
#56556
1+
#56871
1!
#56872
0!
#56902
#56917
0+
#56934
1)
#57376
0)
#57392
1*
#57854
0*
#57871
1#
#57896
1!
#57897
0!
#57926
#57942
0#
#57959
1'
#58420
0'
#58436
1%
#58871
1!
#58872
0!
#58897
#58912
0%
#58928
1+
#59098
0+
#59115
1)
#59576
0)
#59593
1"
#59638
0"
#59654
1&
#59872
1!
#59873
0!
#59907
#59922
0&
#59939
1#
#59965
0#
#59981
1(
#60443
0(
#60459
1%
#60508
0%
#60525
1$
#60872
1!
#60873
0!
#60907
#60922
0$
#60939
1*
#61399
0*
#61415
1'
#61872
1!
#61873
0!
#61886
#61907
1!
#61908
0!
#61939
0'
#61955
1&
#62223
0&
#62239
1#
#62266
0#
#62282
1+
#62744
0+
#62761
1"
#62805
0"
#62821
1%
#62871
1!
#62872
0!
#62902
#62917
0%
#62933
1)
#63395
0)
#63412
1$
#63554
0$
#63571
1#
#63598
0#
#63614
1(
#63871
1!
#63872
0!
#63902
#63917
0(
#63933
1*
#64376
0*
#64392
1%
#64826
0%
#64843
1#
#64870
0#
#64886
1&
#64911
1!
#64912
0!
#64936
#64952
0&
#64968
1"
#65012
0"
#65028
1(
#65259
0(
#65275
1*
#65717
0*
#65733
1#
#65760
0#
#65776
1%
#65872
1!
#65873
0!
#65902
#65917
0%
#65933
1&
#66393
0&
#66409
1*
#66869
0*
#66885
1#
#66910
1!
#66911
0!
#66945
#66960
0#
#66977
1'
#67440
0'
#67456
1+
#67871
1!
#67872
0!
#67901
#67917
0+
#67933
1%
#68323
0%
#68339
1"
#68382
0"
#68398
1&
#68859
0&
#68875
1*
#68900
1!
#68901
0!
#68925
#68940
0*
#68956
1#
#68983
0#
#69000
1)
#69460
0)
#69476
1$
#69871
1!
#69872
0!
#69896
#69912
0$
#69928
1+
#69998
0+
#70014
1(
#70475
0(
#70491
1*
#70871
1!
#70872
0!
#70896
#70912
0*
#70928
1#
#70955
0#
#70971
1"
#71016
0"
#71032
1$
#71123
0$
#71139
1'
#71603
0'
#71619
1*
#71726
0*
#71742
1#
#71872
1!
#71873
0!
#71902
#71917
0#
#71934
1)
#72397
0)
#72413
1(
#72876
1!
#72877
0!
#72916
#72932
0(
#72948
1#
#72975
0#
#72991
1%
#73453
0%
#73469
1&
#73871
1!
#73872
0!
#73912
#73927
0&
#73944
1"
#73987
0"
#74003
1$
#74464
0$
#74480
1#
#74508
0#
#74524
1+
#74871
1!
#74872
0!
#74897
#74912
0+
#74928
1*
#75389
0*
#75405
1)
#75866
0)
#75882
1(
#75907
1!
#75908
0!
#75932
#75947
0(
#75963
1&
#76047
0&
#76063
1#
#76090
0#
#76106
1'
#76568
0'
#76585
1+
#76724
0+
#76740
1"
#76785
0"
#76801
1(
#76825
0(
#76842
1#
#76870
0#
#76886
1(
#76910
1!
#76911
0!
#76950
#76966
0(
#76983
1#
#77010
0#
#77026
1%
#77488
0%
#77504
1$
#77872
1!
#77873
0!
#77902
#77917
0$
#77933
1)
#78376
0)
#78392
1&
#78853
0&
#78869
1(
#78893
1!
#78894
0!
#78918
#78934
0(
#78950
1#
#78977
0#
#78993
1*
#79436
0*
#79452
1"
#79496
0"
#79512
1$
#79630
0$
#79646
1)
#79871
1!
#79872
0!
#79902
#79917
0)
#79933
1+
#80394
0+
#80410
1(
#80871
0(
#80887
1#
#80912
1!
#80913
0!
#80947
#80963
0#
#80979
1*
#81439
0*
#81455
1'
#81871
1!
#81872
0!
#81897
#81912
0'
#81928
1%
#82389
0%
#82405
1)
#82664
0)
#82680
1&
#82872
1!
#82873
0!
#82896
#82912
0&
#82928
1"
#82972
0"
#82988
1(
#83430
0(
#83446
1#
#83473
0#
#83489
1$
#83872
1!
#83873
0!
#83897
#83912
0$
#83928
1'
#83996
0'
#84013
1+
#84475
0+
#84491
1&
#84786
0&
#84802
1(
#84871
1!
#84872
0!
#84902
#84917
0(
#84933
1#
#84960
0#
#84976
1*
#85437
0*
#85453
1$
#85554
0$
#85571
1)
#85871
1!
#85872
0!
#85902
#85917
0)
#85933
1"
#85977
0"
#85994
1(
#86411
0(
#86427
1#
#86454
0#
#86470
1'
#86872
1!
#86873
0!
#86902
#86917
0'
#86933
1$
#87394
0$
#87410
1)
#87576
0)
#87592
1#
#87619
0#
#87635
1%
#87871
1!
#87872
0!
#87907
#87922
0%
#87939
1*
#87967
x*
#87987
0*
#88003
1'
#88087
0'
#88103
1)
#88563
0)
#88580
1#
#88637
0#
#88653
1&
#88871
1!
#88872
0!
#88897
#88912
0&
#88928
1"
#88972
0"
#88988
1$
#89450
0$
#89467
1%
#89717
0%
#89733
1#
#89760
0#
#89777
1+
#89871
1!
#89872
0!
#89897
#89912
0+
#89928
1&
#90197
0&
#90214
1#
#90240
0#
#90257
1'
#90721
0'
#90737
1+
#90872
1!
#90873
0!
#90907
#90922
0+
#90938
1#
#90965
0#
#90982
1(
#91424
0(
#91440
1)
#91468
x)
#91489
0)
#91505
1"
#91549
0"
#91565
1+
#91846
0+
#91862
1#
#91886
1!
#91887
0!
#91904
#91920
0#
#91937
1(
#92400
0(
#92416
1#
#92871
1!
#92872
0!
#92912
#92927
0#
#92944
1$
#93405
0$
#93422
1%
#93871
1!
#93872
0!
#93886
#93912
1!
#93913
0!
#93948
0%
#93965
1&
#94426
0&
#94442
1"
#94486
0"
#94502
1#
#94528
0#
#94544
1+
#94871
1!
#94872
0!
#94902
#94917
0+
#94934
1%
#95378
0%
#95394
1#
#95422
0#
#95438
1'
#95466
x'
#95486
0'
#95502
1$
#95871
1!
#95872
0!
#95902
#95917
0$
#95934
1+
#96073
0+
#96089
1%
#96117
x%
#96137
0%
#96154
1#
#96239
0#
#96256
1(
#96715
0(
#96732
1"
#96775
0"
#96791
1$
#96872
1!
#96873
0!
#96897
#96912
0$
#96928
1+
#97388
0+
#97404
1#
#97432
0#
#97448
1&
#97871
1!
#97872
0!
#97897
#97912
0&
#97928
1$
#97988
0$
#98004
1#
#98032
0#
#98048
1"
#98090
0"
#98107
1&
#98168
0&
#98184
1#
#98871
1!
#98872
0!
#98897
#98912
0#
#98929
1+
#99390
0+
#99406
1#
#99871
1!
#99872
0!
#99907
#99922
0#
#99939
1"
#99983
0"
#99999
1&
#100460
0&
#100477
1+
#100871
1!
#100872
0!
#100907
#100922
0+
#100939
1#
#100966
0#
#100982
1(
#101442
0(
#101459
1$
#101872
1!
#101873
0!
#101897
#101912
0$
#101928
1&
#101956
x&
#101977
0&
#101993
1+
#102082
0+
#102099
1#
#102158
0#
#102174
1"
#102217
0"
#102233
1$
#102306
0$
#102322
1#
#102871
1!
#102872
0!
#102889
#103871
1!
#103872
0!
#103897
#103912
0#
#103929
1"
#103973
0"
#103989
1#
#104872
1!
#104873
0!
#104902
#104917
0#
#104934
1(
#104963
x(
#104983
0(
#104999
1+
#105441
0+
#105458
1#
#105482
0#
#105499
1+
#105528
x+
#105548
0+
#105564
1#
#105872
1!
#105873
0!
#105896
#105912
0#
#105929
1"
#105972
0"
#105989
1#
#106871
1!
#106872
0!
#106897
#106912
0#
#106929
1$
#107389
0$
#107406
1#
#107871
1!
#107872
0!
#107897
#107912
0#
#107929
1"
#107972
0"
#107989
1#
#108871
1!
#108872
0!
#108897
#108912
0#
#108929
1$
#109389
0$
#109406
1#
#109871
1!
#109872
0!
#109897
#109912
0#
#109929
1"
#109972
0"
#109988
1#
#110871
1!
#110872
0!
#110889
#111872
1!
#111873
0!
#111897
#111912
0#
#111929
1"
#111972
0"
#111989
1#
#112872
1!
#112873
0!
#112889
#113871
1!
#113872
0!
#113901
#113917
0#
#113934
1$
#113962
x$
#113983
0$
#113999
1"
