tracedata/example.vcd
$version
    FreeRTOS trace logger
$end
$timeScale 1us $end
$scope module task $end
$var wire 1 ! (0000)tick_event $end
$var wire 1 " (0001)Main $end
$var wire 1 # (0002)IDLE $end
$var wire 1 $ (0003)task $end
$var wire 1 % (0004)task $end
$var wire 1 & (0005)task $end
$var wire 1 ' (0006)task $end
$var wire 1 ( (0007)task $end
$var wire 1 ) (0008)task $end
$var wire 1 * (0009)task $end
$var wire 1 + (0010)task $end
$upscope $end
$enddefinitions $end
$dumpvars
#12703
0"
#12977
0#
#12996
1#
#13028
0#
#13045
1"
#13236
0$
#13427
0%
#13619
0&
#13810
0'
#14002
0(
#14024
1!
#14025
0!
#14043
#14059
0"
#14076
1#
#14104
0#
#14121
1$
#14581
0$
#14598
1%
#15019
1!
#15020
0!
#15037
#15053
0%
#15070
1&
#15530
0&
#15546
1'
#16007
0'
#16023
1(
#16049
1!
#16050
0!
#16067
#16083
0(
#16100
1"
#16295
0)
#16486
0*
#16678
0+
#16722
0"
#16739
1#
#16767
0#
#16785
1%
#16851
0%
#16868
1(
#17019
1!
#17020
0!
#17044
#17060
0(
#17077
1)
#17521
0)
#17537
1*
#17981
0*
#17997
1+
#18023
1!
#18024
0!
#18054
#18070
0+
#18087
1#
#18114
0#
#18132
1'
#18593
0'
#18609
1(
#18928
0(
#18945
1)
#19019
1!
#19020
0!
#19044
#19060
0)
#19077
1*
#19538
0*
#19555
1&
#20015
0&
#20031
1"
#20057
1!
#20058
0!
#20083
#20099
0"
#20116
1+
#20577
0+
#20594
1#
#20621
0#
#20639
1(
#21019
1!
#21020
0!
#21049
#21065
0(
#21082
1$
#21544
0$
#21561
1)
#21973
0)
#21990
1&
#22019
1!
#22020
0!
#22044
#22060
0&
#22077
1"
#22122
0"
#22138
1#
#22166
0#
#22184
1%
#22646
0%
#22663
1*
#23019
1!
#23020
0!
#23044
#23060
0*
#23077
1(
#23166
0(
#23183
1'
#23646
0'
#23663
1&
#24019
1!
#24020
0!
#24049
#24066
0&
#24083
1#
#24110
0#
#24128
1+
#24571
0+
#24588
1*
#24701
0*
#24718
1(
#25019
1!
#25020
0!
#25037
#25053
0(
#25070
1)
#25532
0)
#25549
1"
#25594
0"
#25611
1&
#25738
0&
#25755
1#
#25782
0#
#25800
1+
#26019
1!
#26020
0!
#26044
#26060
0+
#26077
1*
#26539
0*
#26556
1(
#26745
0(
#26762
1#
#26789
0#
#26807
1$
#27019
1!
#27020
0!
#27059
#27076
0$
#27093
1+
#27360
0+
#27376
1#
#27404
0#
#27422
1%
#27883
0%
#27900
1"
#27945
0"
#27961
1&
#28019
1!
#28020
0!
#28044
#28060
0&
#28077
1*
#28541
0*
#28557
1$
#28833
0$
#28850
1#
#28877
0#
#28895
1'
#29019
1!
#29020
0!
#29060
#29076
0'
#29092
1&
#29523
0&
#29539
1#
#29567
0#
#29585
1+
#30019
1!
#30020
0!
#30044
#30060
0+
#30077
1%
#30521
0%
#30537
1"
#30583
0"
#30599
1$
#31019
1!
#31020
0!
#31044
#31061
0$
#31078
1'
#31422
0'
#31439
1#
#31467
0#
#31485
1)
#31947
0)
#31963
1+
#32018
0+
#32034
1%
#32060
1!
#32061
0!
#32101
#32117
0%
#32134
1(
#32594
0(
#32611
1$
#32678
0$
#32695
1'
#33019
1!
#33020
0!
#33037
#33053
0'
#33070
1#
#33097
0#
#33115
1*
#33558
0*
#33575
1&
#34019
1!
#34020
0!
#34044
#34061
0&
#34077
1"
#34121
0"
#34138
1)
#34600
0)
#34616
1%
#35019
1!
#35020
0!
#35037
#35053
0%
#35070
1'
#35235
0'
#35252
1#
#35279
0#
#35297
1*
#35760
0*
#35776
1+
#36019
1!
#36020
0!
#36054
#36071
0+
#36088
1&
#36132
0&
#36148
1%
#36234
0%
#36250
1#
#36278
0#
#36296
1$
#36758
0$
#36775
1"
#36820
0"
#36837
1)
#37019
1!
#37020
0!
#37054
#37071
0)
#37088
1+
#37333
0+
#37350
1#
#37378
0#
#37396
1(
#37859
0(
#37876
1'
#38019
1!
#38020
0!
#38049
#38066
0'
#38083
1*
#38526
0*
#38542
1)
#38829
0)
#38846
1#
#38873
0#
#38891
1$
#39019
1!
#39020
0!
#39044
#39061
0$
#39077
1"
#39123
0"
#39139
1'
#39484
0'
#39501
1*
#39963
0*
#39980
1)
#40019
1!
#40020
0!
#40055
#40071
0)
#40087
1#
#40115
0#
#40133
1&
#40595
0&
#40612
1$
#40971
0$
#40987
1%
#41019
1!
#41020
0!
#41049
#41066
0%
#41082
1+
#41543
0+
#41560
1(
#42023
1!
#42024
0!
#42054
#42070
0(
#42086
1)
#42534
0)
#42551
1#
#42579
0#
#42597
1"
#42642
0"
#42659
1$
#43019
1!
#43020
0!
#43049
#43066
0$
#43082
1*
#43526
0*
#43543
1+
#43986
0+
#44002
1%
#44028
1!
#44029
0!
#44063
#44080
0%
#44096
1#
#44124
0#
#44142
1'
#44602
0'
#44619
1&
#45019
1!
#45020
0!
#45044
#45060
0&
#45077
1$
#45203
0$
#45219
1*
#45663
0*
#45679
1+
#46019
1!
#46020
0!
#46037
#46053
0+
#46070
1(
#46096
0(
#46112
1)
#46573
0)
#46590
1"
#46634
0"
#46651
1%
#47019
1!
#47020
0!
#47037
#47053
0%
#47070
1#
#47098
0#
#47116
1'
#47577
0'
#47594
1&
#47682
0&
#47699
1*
#48019
1!
#48020
0!
#48049
#48066
0*
#48083
1+
#48230
0+
#48247
1(
#48691
0(
#48707
1%
#48823
0%
#48839
1#
#48867
0#
#48885
1$
#49019
1!
#49020
0!
#49049
#49066
0$
#49082
1"
#49126
0"
#49143
1*
#49312
0*
#49329
1(
#49790
0(
#49807
1#
#49835
0#
#49853
1)
#50019
1!
#50020
0!
#50044
#50061
0)
#50077
1'
#50541
0'
#50557
1$
#50911
0$
#50928
1#
#50956
0#
#50974
1&
#51019
1!
#51020
0!
#51049
#51066
0&
#51083
1)
#51405
0)
#51422
1#
#51450
0#
#51468
1"
#51513
0"
#51529
1(
#51994
0(
#52011
1&
#52036
1!
#52037
0!
#52072
#52088
0&
#52105
1#
#52132
0#
#52150
1+
#52613
0+
#52630
1%
#53019
1!
#53020
0!
#53044
#53061
0%
#53078
1$
#53541
0$
#53557
1&
#54002
0&
#54018
1#
#54044
1!
#54045
0!
#54075
#54091
0#
#54109
1"
#54154
0"
#54171
1%
#54270
0%
#54287
1*
#54750
0*
#54767
1'
#55019
1!
#55020
0!
#55044
#55061
0'
#55078
1#
#55105
0#
#55123
1)
#55588
0)
#55604
1'
#55843
0'
#55860
1#
#56019
1!
#56020
0!
#56055
#56071
0#
#56088
1(
#56550
0(
#56566
1+
#57019
1!
#57020
0!
#57034
#57063
1!
#57064
0!
#57105
0+
#57122
1"
#57167
0"
#57184
1#
#57212
0#
#57229
1%
#57692
0%
#57708
1*
#58019
1!
#58020
0!
#58054
#58071
0*
#58088
1(
#58531
0(
#58549
1#
#58577
0#
#58594
1$
#59019
1!
#59020
0!
#59049
#59066
0$
#59082
1&
#59544
0&
#59561
1'
#60022
1!
#60023
0!
#60048
#60065
0'
#60081
1*
#60259
0*
#60275
1(
#60738
0(
#60756
1#
#60783
0#
#60800
1"
#60846
0"
#60863
1%
#61019
1!
#61020
0!
#61049
#61066
0%
#61083
1)
#61546
0)
#61562
1$
#61625
0$
#61643
1#
#61671
0#
#61687
1+
#62019
1!
#62020
0!
#62060
#62076
0+
#62092
1'
#62118
0'
#62135
1%
#62466
0%
#62484
1#
#62512
0#
#62529
1&
#62991
0&
#63008
1*
#63033
1!
#63034
0!
#63059
#63076
0*
#63093
1"
#63137
0"
#63154
1$
#63616
0$
#63633
1+
#63793
0+
#63809
1'
#64019
1!
#64020
0!
#64049
#64066
0'
#64083
1#
#64111
0#
#64128
1(
#64591
0(
#64608
1*
#65019
1!
#65020
0!
#65049
#65066
0*
#65083
1)
#65545
0)
#65562
1%
#66005
0%
#66021
1'
#66047
1!
#66048
0!
#66065
#66081
0'
#66099
1#
#66126
0#
#66143
1"
#66187
0"
#66204
1$
#66665
0$
#66682
1*
#66760
0*
#66777
1%
#67019
1!
#67020
0!
#67054
#67071
0%
#67087
1'
#67346
0'
#67364
1#
#67391
0#
#67408
1&
#67869
0&
#67885
1+
#68019
1!
#68020
0!
#68049
#68065
0+
#68082
1$
#68543
0$
#68559
1%
#68805
0%
#68822
1'
#69019
1!
#69020
0!
#69049
#69066
0'
#69083
1#
#69111
0#
#69127
1"
#69172
0"
#69188
1&
#69651
0&
#69667
1+
#70022
1!
#70023
0!
#70053
#70069
0+
#70086
1(
#70547
0(
#70564
1$
#71019
1!
#71020
0!
#71034
#71058
1!
#71059
0!
#71090
0$
#71107
1'
#71396
0'
#71413
1)
#71875
0)
#71892
1*
#72019
1!
#72020
0!
#72044
#72061
0*
#72077
1"
#72124
0"
#72141
1#
#72168
0#
#72186
1%
#72650
0%
#72666
1*
#73019
1!
#73020
0!
#73034
#73061
1!
#73062
0!
#73103
0*
#73119
1#
#73147
0#
#73164
1(
#73627
0(
#73643
1'
#74019
1!
#74020
0!
#74059
#74076
0'
#74093
1)
#74554
0)
#74572
1#
#74600
0#
#74616
1&
#75019
1!
#75020
0!
#75049
#75066
0&
#75083
1+
#75108
0+
#75125
1$
#75588
0$
#75604
1"
#75649
0"
#75666
1'
#75778
0'
#75795
1#
#75823
0#
#75840
1*
#76019
1!
#76020
0!
#76049
#76065
0*
#76082
1(
#76545
0(
#76561
1&
#76646
0&
#76662
1+
#77019
1!
#77020
0!
#77044
#77061
0+
#77078
1#
#77106
0#
#77122
1%
#77583
0%
#77600
1)
#78019
1!
#78020
0!
#78055
#78071
0)
#78087
1*
#78397
0*
#78414
1"
#78458
0"
#78475
1+
#78605
0+
#78623
1#
#78650
0#
#78667
1'
#79019
1!
#79020
0!
#79049
#79065
0'
#79082
1&
#79545
0&
#79561
1%
#80004
0%
#80021
1)
#80046
1!
#80047
0!
#80072
#80088
0)
#80106
1#
#80133
0#
#80150
1$
#80612
0$
#80628
1(
#81019
1!
#81020
0!
#81044
#81061
0(
#81077
1'
#81194
0'
#81210
1%
#81672
0%
#81689
1"
#81734
0"
#81750
1)
#81821
0)
#81838
1#
#81866
0#
#81882
1+
#82019
1!
#82020
0!
#82049
#82066
0+
#82083
1(
#82179
0(
#82195
1'
#82658
0'
#82675
1#
#82703
0#
#82720
1*
#83019
1!
#83020
0!
#83054
#83071
0*
#83088
1&
#83549
0&
#83566
1+
#83918
0+
#83935
1#
#83963
0#
#83979
1$
#84019
1!
#84020
0!
#84049
#84065
0$
#84082
1"
#84127
0"
#84144
1(
#84587
0(
#84603
1*
#84793
0*
#84810
1#
#84838
0#
#84854
1%
#85019
1!
#85020
0!
#85044
#85061
0%
#85078
1)
#85540
0)
#85557
1$
#86005
0$
#86022
1(
#86048
1!
#86049
0!
#86084
#86100
0(
#86117
1#
#86145
0#
#86162
1'
#86623
0'
#86640
1%
#86961
0%
#86978
1+
#87019
1!
#87020
0!
#87044
#87060
0+
#87077
1"
#87123
0"
#87139
1*
#87602
0*
#87619
1(
#88019
1!
#88020
0!
#88049
#88065
0(
#88083
1#
#88111
0#
#88127
1%
#88589
0%
#88606
1+
#89019
1!
#89020
0!
#89054
#89071
0+
#89088
1&
#89531
0&
#89547
1'
#90008
0'
#90025
1(
#90051
1!
#90052
0!
#90076
#90093
0(
#90110
1#
#90138
0#
#90155
1$
#90617
0$
#90633
1"
#90678
0"
#90695
1%
#91019
1!
#91020
0!
#91044
#91061
0%
#91077
1+
#91136
0+
#91153
1&
#91615
0&
#91632
1)
#92019
1!
#92020
0!
#92049
#92066
0)
#92082
1(
#92169
0(
#92187
1#
#92215
0#
#92231
1'
#92694
0'
#92711
1%
#92855
0%
#92872
1*
#93019
1!
#93020
0!
#93044
#93060
0*
#93077
1"
#93122
0"
#93139
1)
#93240
0)
#93258
1#
#93286
0#
#93302
1%
#93766
0%
#93783
1$
#94019
1!
#94020
0!
#94037
#94053
0$
#94070
1*
#94411
0*
#94429
1#
#94457
0#
#94473
1$
#94725
0$
#94743
1#
#95019
1!
#95020
0!
#95065
#95081
0#
#95098
1+
#95561
0+
#95577
1&
#96019
1!
#96020
0!
#96049
#96066
0&
#96082
1(
#96526
0(
#96543
1"
#96587
0"
#96604
1$
#97019
1!
#97020
0!
#97049
#97066
0$
#97083
1#
#97110
0#
#97128
1)
#97572
0)
#97588
1*
#97617
x*
#97639
0*
#97655
1&
#97683
0&
#97700
1(
#97728
x(
#97750
0(
#97766
1'
#98019
1!
#98020
0!
#98049
#98065
0'
#98082
1%
#98525
0%
#98541
1$
#98613
0$
#98630
1#
#98716
0#
#98733
1)
#99019
1!
#99020
0!
#99037
#99053
0)
#99070
1&
#99530
0&
#99546
1+
#100007
0+
#100024
1"
#100050
1!
#100051
0!
#100068
#100084
0"
#100101
1'
#100336
0'
#100353
1%
#100381
x%
#100403
0%
#100419
1#
#100477
0#
#100495
1)
#100695
0)
#100712
1"
#100758
0"
#100775
1#
#101019
1!
#101020
0!
#101049
#101066
0#
#101083
1&
#101545
0&
#101562
1)
#102019
1!
#102020
0!
#102034
#102057
1!
#102058
0!
#102105
0)
#102121
1#
#102147
0#
#102164
1+
#102626
0+
#102643
1'
#102672
x'
#102692
0'
#102709
1"
#102753
0"
#102770
1&
#102800
x&
#102820
0&
#102838
1#
#103019
1!
#103020
0!
#103044
#103061
0#
#103078
1$
#103107
x$
#103129
0$
#103145
1#
#104019
1!
#104020
0!
#104044
#104061
0#
#104078
1"
#104122
0"
#104139
1#
#105019
1!
#105020
0!
#105049
#105066
0#
#105083
1)
#105114
x)
#105135
0)
#105152
1+
#105613
0+
#105630
1#
#106019
1!
#106020
0!
#106044
#106061
0#
#106078
1"
#106122
0"
#106138
1#
#107019
1!
#107020
0!
#107037
#108019
1!
#108020
0!
#108044
#108061
0#
#108078
1"
#108122
0"
#108139
1#
#109019
1!
#109020
0!
#109037
#110019
1!
#110020
0!
#110049
#110065
0#
#110082
1+
#110526
0+
#110542
1"
#110586
0"
#110602
1#
#110631
0#
#110648
1+
#110677
x+
#110698
0+
#110715
1#
#111019
1!
#111020
0!
#111037
#112019
1!
#112020
0!
#112044
#112060
0#
#112077
1"
