tracedata/example.vcd
$version
    FreeRTOS trace logger
$end
$timeScale 1us $end
$scope module task $end
$var wire 1 ! (0000)tick_event $end
$var wire 1 " (0001)Main $end
$var wire 1 # (0002)IDLE $end
$var wire 1 $ (0003)task $end
$var wire 1 % (0004)task $end
$var wire 1 & (0005)task $end
$var wire 1 ' (0006)task $end
$var wire 1 ( (0007)task $end
$var wire 1 ) (0008)task $end
$var wire 1 * (0009)task $end
$var wire 1 + (0010)task $end
$upscope $end
$enddefinitions $end
$dumpvars
#12663
0"
#12833
0#
#12852
1#
#12883
0#
#12900
1"
#13049
0$
#13203
0%
#13357
0&
#13511
0'
#13665
0(
#13819
0)
#13874
1!
#13875
0!
#13890
#13923
1!
#13924
0!
#13947
0"
#13963
1#
#13989
0#
#14006
1$
#14466
0$
#14483
1%
#14874
1!
#14875
0!
#14893
#14911
0%
#14927
1&
#15387
0&
#15404
1'
#15864
0'
#15880
1(
#15905
1!
#15906
0!
#15924
#15942
0(
#15959
1)
#16421
0)
#16437
1"
#16548
0*
#16702
0+
#16750
0"
#16767
1#
#16792
0#
#16810
1%
#16874
1!
#16875
0!
#16901
#16918
0%
#16935
1(
#17378
0(
#17394
1*
#17837
0*
#17854
1+
#17878
1!
#17879
0!
#17910
#17928
0+
#17945
1#
#17970
0#
#17988
1'
#18449
0'
#18465
1%
#18501
0%
#18518
1(
#18874
1!
#18875
0!
#18901
#18918
0(
#18935
1*
#19395
0*
#19412
1&
#19872
0&
#19889
1"
#19913
1!
#19914
0!
#19940
#19958
0"
#19974
1+
#20436
0+
#20453
1#
#20478
0#
#20496
1%
#20874
1!
#20875
0!
#20906
#20924
0%
#20940
1$
#21402
0$
#21419
1(
#21548
0(
#21564
1&
#21874
1!
#21875
0!
#21901
#21918
0&
#21936
1"
#21979
0"
#21997
1#
#22022
0#
#22039
1)
#22501
0)
#22519
1*
#22874
1!
#22875
0!
#22901
#22918
0*
#22935
1%
#23023
0%
#23040
1'
#23502
0'
#23519
1&
#23676
0&
#23693
1#
#23719
0#
#23736
1+
#23874
1!
#23875
0!
#23906
#23924
0+
#23940
1*
#24052
0*
#24069
1%
#24530
0%
#24547
1&
#24874
1!
#24875
0!
#24893
#24911
0&
#24927
1#
#24953
0#
#24970
1(
#25432
0(
#25449
1"
#25493
0"
#25510
1+
#25858
0+
#25874
1*
#25899
1!
#25900
0!
#25931
#25949
0*
#25966
1&
#26127
0&
#26145
1#
#26170
0#
#26187
1$
#26650
0$
#26667
1+
#26874
1!
#26875
0!
#26911
#26929
0+
#26946
1*
#27407
0*
#27424
1#
#27449
0#
#27467
1)
#27874
1!
#27875
0!
#27906
#27924
0)
#27940
1(
#28402
0(
#28419
1"
#28464
0"
#28480
1+
#28759
0+
#28776
1#
#28801
0#
#28818
1'
#28874
1!
#28875
0!
#28912
#28929
0'
#28946
1$
#29407
0$
#29425
1)
#29484
0)
#29501
1#
#29526
0#
#29543
1%
#29874
1!
#29875
0!
#29901
#29918
0%
#29935
1*
#30378
0*
#30395
1+
#30855
0+
#30872
1'
#30896
1!
#30897
0!
#30929
#30946
0'
#30963
1)
#31424
0)
#31440
1#
#31466
0#
#31483
1"
#31528
0"
#31545
1%
#31701
0%
#31718
1*
#31874
1!
#31875
0!
#31906
#31924
0*
#31941
1&
#32402
0&
#32419
1+
#32862
0+
#32879
1'
#32903
1!
#32904
0!
#32930
#32948
0'
#32965
1#
#32990
0#
#33007
1(
#33469
0(
#33486
1$
#33874
1!
#33875
0!
#33901
#33918
0$
#33936
1*
#34265
0*
#34282
1+
#34745
0+
#34761
1"
#34807
0"
#34825
1'
#34874
1!
#34875
0!
#34893
#34911
0'
#34927
1#
#34953
0#
#34970
1)
#35434
0)
#35451
1$
#35552
0$
#35569
1'
#35874
1!
#35875
0!
#35927
#35945
0'
#35962
1#
#35987
0#
#36005
1%
#36465
0%
#36482
1&
#36874
1!
#36875
0!
#36901
#36918
0&
#36935
1(
#37397
0(
#37413
1*
#37875
1!
#37876
0!
#37902
#37919
0*
#37936
1+
#38379
0+
#38396
1"
#38440
0"
#38457
1'
#38563
0'
#38580
1#
#38605
0#
#38623
1)
#38874
1!
#38875
0!
#38901
#38918
0)
#38935
1%
#39397
0%
#39414
1&
#39509
0&
#39525
1+
#39874
1!
#39875
0!
#39912
#39929
0+
#39946
1'
#40407
0'
#40424
1#
#40450
0#
#40467
1$
#40874
1!
#40875
0!
#40893
#40911
0$
#40928
1)
#41161
0)
#41178
1(
#41640
0(
#41656
1*
#41681
0*
#41699
1"
#41744
0"
#41761
1+
#41874
1!
#41875
0!
#41911
#41929
0+
#41946
1#
#41972
0#
#41989
1$
#42069
0$
#42086
1*
#42548
0*
#42565
1&
#42874
1!
#42875
0!
#42911
#42929
0&
#42946
1)
#43389
0)
#43405
1(
#43848
0(
#43865
1+
#43889
1!
#43890
0!
#43916
#43934
0+
#43951
1#
#43976
0#
#43993
1%
#44454
0%
#44471
1'
#44874
1!
#44875
0!
#44906
#44923
0'
#44940
1"
#44983
0"
#45000
1&
#45177
0&
#45194
1)
#45637
0)
#45653
1(
#45874
1!
#45875
0!
#45893
#45911
0(
#45928
1*
#46389
0*
#46406
1+
#46455
0+
#46471
1#
#46497
0#
#46514
1$
#46874
1!
#46875
0!
#46901
#46919
0$
#46936
1%
#47397
0%
#47414
1'
#47499
0'
#47516
1)
#47874
1!
#47875
0!
#47906
#47924
0)
#47941
1(
#48187
0(
#48204
1#
#48229
0#
#48246
1"
#48291
0"
#48307
1$
#48435
0$
#48452
1&
#48874
1!
#48875
0!
#48901
#48918
0&
#48935
1+
#49398
0+
#49415
1)
#49542
0)
#49559
1(
#49874
1!
#49875
0!
#49906
#49924
0(
#49941
1#
#49967
0#
#49984
1*
#50447
0*
#50463
1&
#50528
0&
#50545
1%
#50874
1!
#50875
0!
#50906
#50924
0%
#50941
1"
#50985
0"
#51003
1(
#51175
0(
#51192
1#
#51218
0#
#51236
1'
#51699
0'
#51716
1)
#51874
1!
#51875
0!
#51906
#51924
0)
#51941
1%
#52099
0%
#52117
1#
#52142
0#
#52159
1$
#52623
0$
#52640
1&
#52874
1!
#52875
0!
#52901
#52919
0&
#52936
1)
#53266
0)
#53283
1#
#53309
0#
#53326
1"
#53371
0"
#53388
1&
#53643
0&
#53660
1#
#53874
1!
#53875
0!
#53906
#53924
0#
#53941
1+
#54405
0+
#54422
1*
#54874
1!
#54875
0!
#54890
#54920
1!
#54921
0!
#54957
0*
#54974
1#
#54998
0#
#55016
1(
#55479
0(
#55496
1"
#55542
0"
#55560
1#
#55874
1!
#55875
0!
#55911
#55929
0#
#55947
1'
#56409
0'
#56426
1%
#56874
1!
#56875
0!
#56890
#56923
1!
#56924
0!
#56971
0%
#56988
1&
#57450
0&
#57467
1#
#57492
0#
#57509
1$
#57874
1!
#57875
0!
#57906
#57924
0$
#57941
1+
#58383
0+
#58400
1"
#58445
0"
#58462
1'
#58874
1!
#58875
0!
#58906
#58924
0'
#58942
1#
#58967
0#
#58984
1)
#59446
0)
#59463
1(
#59874
1!
#59875
0!
#59901
#59918
0(
#59935
1$
#60057
0$
#60074
1+
#60535
0+
#60552
1*
#60874
1!
#60875
0!
#60901
#60919
0*
#60935
1&
#61397
0&
#61414
1'
#61489
0'
#61507
1#
#61532
0#
#61549
1"
#61594
0"
#61611
1(
#61686
0(
#61703
1%
#61874
1!
#61875
0!
#61917
#61934
0%
#61951
1*
#62120
0*
#62137
1#
#62163
0#
#62179
1)
#62642
0)
#62659
1$
#62874
1!
#62875
0!
#62901
#62919
0$
#62935
1+
#63397
0+
#63414
1(
#63877
1!
#63878
0!
#63915
#63933
0(
#63949
1%
#64269
0%
#64287
1#
#64312
0#
#64329
1"
#64373
0"
#64389
1&
#64852
0&
#64869
1'
#64894
1!
#64895
0!
#64921
#64939
0'
#64956
1*
#65399
0*
#65415
1$
#65686
0$
#65703
1#
#65728
0#
#65745
1+
#65874
1!
#65875
0!
#65906
#65924
0+
#65940
1'
#66402
0'
#66419
1*
#66861
0*
#66879
1#
#66903
1!
#66904
0!
#66935
#66953
0#
#66970
1"
#67014
0"
#67031
1$
#67490
0$
#67507
1+
#67863
0+
#67880
1*
#67904
1!
#67905
0!
#67937
#67954
0*
#67972
1)
#68434
0)
#68451
1(
#68476
0(
#68492
1#
#68517
0#
#68534
1$
#68874
1!
#68875
0!
#68911
#68929
0$
#68946
1+
#69407
0+
#69423
1*
#69874
1!
#69875
0!
#69890
#69917
1!
#69918
0!
#69949
0*
#69966
1(
#70427
0(
#70443
1#
#70469
0#
#70485
1%
#70874
1!
#70875
0!
#70893
#70911
0%
#70927
1&
#71390
0&
#71406
1"
#71450
0"
#71467
1'
#71874
1!
#71875
0!
#71901
#71918
0'
#71935
1$
#72082
0$
#72099
1#
#72124
0#
#72141
1%
#72240
0%
#72257
1)
#72721
0)
#72738
1'
#72819
0'
#72837
1#
#72874
1!
#72875
0!
#72906
#72924
0#
#72941
1(
#73405
0(
#73421
1"
#73468
0"
#73485
1#
#73874
1!
#73875
0!
#73917
#73934
0#
#73952
1+
#74415
0+
#74431
1*
#74874
1!
#74875
0!
#74917
#74934
0*
#74951
1$
#75412
0$
#75429
1%
#75874
1!
#75875
0!
#75890
#75922
1!
#75923
0!
#75959
0%
#75976
1#
#76002
0#
#76019
1&
#76480
0&
#76497
1'
#76874
1!
#76875
0!
#76893
#76911
0'
#76927
1(
#77389
0(
#77406
1"
#77451
0"
#77468
1)
#77874
1!
#77875
0!
#77901
#77918
0)
#77935
1+
#78397
0+
#78414
1*
#78462
0*
#78479
1#
#78504
0#
#78522
1'
#78632
0'
#78649
1%
#78874
1!
#78875
0!
#78922
#78940
0%
#78956
1)
#79036
0)
#79053
1#
#79078
0#
#79095
1$
#79537
0$
#79554
1&
#79874
1!
#79875
0!
#79893
#79911
0&
#79927
1(
#80389
0(
#80406
1"
#80450
0"
#80467
1+
#80874
1!
#80875
0!
#80901
#80918
0+
#80936
1%
#81180
0%
#81198
1#
#81223
0#
#81240
1$
#81702
0$
#81719
1&
#81874
1!
#81875
0!
#81890
#81919
1!
#81920
0!
#81961
0&
#81979
1'
#82439
0'
#82456
1+
#82536
0+
#82552
1%
#82874
1!
#82875
0!
#82906
#82924
0%
#82940
1#
#82966
0#
#82983
1*
#83444
0*
#83461
1)
#83874
1!
#83875
0!
#83906
#83924
0)
#83940
1"
#83984
0"
#84002
1(
#84463
0(
#84479
1'
#84874
1!
#84875
0!
#84901
#84918
0'
#84935
1%
#85080
0%
#85097
1#
#85122
0#
#85139
1$
#85600
0$
#85617
1&
#85874
1!
#85875
0!
#85901
#85918
0&
#85935
1)
#86008
0)
#86026
1+
#86487
0+
#86504
1'
#86597
0'
#86614
1%
#86874
1!
#86875
0!
#86906
#86924
0%
#86940
1#
#86966
0#
#86983
1"
#87027
0"
#87043
1&
#87276
0&
#87293
1(
#87756
0(
#87774
1$
#87874
1!
#87875
0!
#87912
#87929
0$
#87946
1%
#88170
0%
#88187
1#
#88212
0#
#88230
1*
#88672
0*
#88689
1'
#88874
1!
#88875
0!
#88906
#88924
0'
#88940
1&
#89402
0&
#89419
1$
#89805
0$
#89822
1#
#89847
0#
#89864
1*
#89889
1!
#89890
0!
#89916
#89934
0*
#89950
1"
#89996
0"
#90013
1%
#90475
0%
#90493
1'
#90795
0'
#90812
1#
#90837
0#
#90855
1+
#90879
1!
#90880
0!
#90911
#90929
0+
#90946
1*
#91409
0*
#91426
1#
#91451
0#
#91468
1)
#91874
1!
#91875
0!
#91912
#91929
0)
#91946
1&
#92407
0&
#92425
1+
#92867
0+
#92883
1#
#92908
1!
#92909
0!
#92927
#92945
0#
#92963
1(
#93425
0(
#93441
1$
#93874
1!
#93875
0!
#93911
#93929
0$
#93946
1"
#93989
0"
#94006
1)
#94088
0)
#94104
1+
#94133
x+
#94158
0+
#94175
1#
#94236
0#
#94253
1%
#94715
0%
#94732
1'
#94874
1!
#94875
0!
#94893
#94911
0'
#94928
1*
#95389
0*
#95407
1$
#95462
0$
#95479
1#
#95505
0#
#95522
1'
#95847
0'
#95864
1#
#95888
1!
#95889
0!
#95931
#95949
0#
#95966
1'
#96408
0'
#96425
1(
#96454
x(
#96478
0(
#96495
1"
#96539
0"
#96556
1%
#96874
1!
#96875
0!
#96901
#96918
0%
#96935
1*
#96965
x*
#96989
0*
#97006
1#
#97103
0#
#97120
1'
#97582
0'
#97599
1&
#97874
1!
#97875
0!
#97911
#97929
0&
#97946
1%
#98114
0%
#98130
1#
#98156
0#
#98173
1)
#98634
0)
#98651
1$
#98874
1!
#98875
0!
#98893
#98911
0$
#98927
1"
#98972
0"
#98988
1&
#99200
0&
#99216
1#
#99242
0#
#99259
1$
#99521
0$
#99539
1#
#99874
1!
#99875
0!
#99906
#99924
0#
#99941
1%
#100403
0%
#100419
1$
#100874
1!
#100875
0!
#100890
#100915
1!
#100916
0!
#100963
0$
#100980
1#
#101005
0#
#101022
1)
#101484
0)
#101500
1"
#101544
0"
#101561
1&
#101874
1!
#101875
0!
#101901
#101918
0&
#101936
1%
#101964
x%
#101989
0%
#102006
1#
#102067
0#
#102084
1'
#102545
0'
#102562
1&
#102717
0&
#102734
1#
#102760
0#
#102777
1&
#102805
x&
#102830
0&
#102847
1#
#102878
1!
#102879
0!
#102905
#102922
0#
#102940
1"
#102985
0"
#103001
1#
#103874
1!
#103875
0!
#103906
#103924
0#
#103941
1$
#103974
x$
#103998
0$
#104015
1)
#104476
0)
#104493
1#
#104874
1!
#104875
0!
#104901
#104918
0#
#104936
1"
#104980
0"
#104997
1#
#105874
1!
#105875
0!
#105901
#105918
0#
#105936
1)
#105965
x)
#105990
0)
#106007
1#
#106874
1!
#106875
0!
#106906
#106923
0#
#106941
1'
#107401
0'
#107418
1"
#107460
0"
#107477
1#
#107874
1!
#107875
0!
#107893
#108874
1!
#108875
0!
#108901
#108918
0#
#108936
1"
#108979
0"
#108996
1#
#109874
1!
#109875
0!
#109893
#110874
1!
#110875
0!
#110901
#110918
0#
#110936
1"
#110980
0"
#110997
1#
#111874
1!
#111875
0!
#111901
#111918
0#
#111936
1'
#111965
x'
#111990
0'
#112007
1#
#112874
1!
#112875
0!
#112900
#112918
0#
#112936
1"
